<svg xmlns="http://www.w3.org/2000/svg" width="48.872" height="57.644" viewBox="0 0 48.872 57.644">
  <g id="flag" transform="translate(-28)">
    <g id="Group_3579" data-name="Group 3579" transform="translate(28)">
      <path id="Path_8473" data-name="Path 8473" d="M69.561,26.316,76.693,14.43a1.253,1.253,0,0,0-1.074-1.9H58.075V8.772a1.254,1.254,0,0,0-1.253-1.253h-18.8V2.506A2.509,2.509,0,0,0,35.519,0H30.506A2.509,2.509,0,0,0,28,2.506V55.138a2.509,2.509,0,0,0,2.506,2.506h5.013a2.509,2.509,0,0,0,2.506-2.506V35.088H55.569v3.759A1.254,1.254,0,0,0,56.822,40.1h18.8a1.252,1.252,0,0,0,1.074-1.9ZM35.519,8.772V55.138H30.506V2.506h5.013Zm20.05,5.013v18.8H38.025V10.025H55.569Zm2.506,23.81V15.038H73.406L67.026,25.67a1.253,1.253,0,0,0,0,1.289l6.38,10.634Z" transform="translate(-28)" fill="#6253ff"/>
    </g>
  </g>
</svg>
